{
 "potential": {
  "type": "BuckinghamCorner",
  "annotation": "O2-N2 interaction. Brunetti 1981 J. Chem. Phys. V 74, p6734, table IV",
  "A": { "value": 28.52e-22, "unit": "J" },
  "rm": { "value": 3.69e-10, "unit": "m" },
  "C6": { "value": 70.5e-79, "unit": "J*m^6" },
  "alpha": 11.24,
  "beta": { "value": 5.6e-20, "unit": "m^2" },
  "gamma": 1.3
 }
}
