{
	"cc": {
		"lower": 1,
		"upper": 4
	},
	"interaction": {
		"potential": {
			"file": "file://$MAGNUMPI_INPUTDATA_DIR/input/coulomb.txt",
			"is_neutral": false,
			"type": "LUT"
		},
		"reduced_mass": { "value": 2.0013, "unit": "amu" }
	},
	"l_max": 2,
	"r": {
		"Vmax": { "value": 20, "unit": "eV" },
		"Vmin": { "value": 1e-3, "unit": "eV" },
		"del": { "value": 1e-14, "unit": "m" },
		"max": { "value": 1e-9, "unit": "m" },
		"min": { "value": 2e-10, "unit": "m" }
	},
	"tolerance": 1e-6,
	"energy": { "value": 10, "unit": "eV"}
}
