{
 "potential": {
  "type": "ESMSV",
  "annotation": "O2-O2 interaction. Brunetti 1981 J. Chem. Phys. V 74, p6734, table II",
  "eps": { "value": 18.3e-22, "unit": "J" },
  "rm": { "value": 3.94e-10, "unit": "m" },
  "A": 0.849,
  "C6": { "value": 74.7e-79, "unit": "J*m^6" },
  "a1": 4.4722,
  "a2": -15.4724,
  "a3": -24.5266,
  "a4": 94.7536,
  "alpha": 12.53,
  "b1": -0.9270,
  "b2": 1.8660,
  "b3": -1.4387,
  "b4": -3.8363,
  "beta": { "value": 5.6e-20, "unit": "m^2" },
  "betam": 6.3,
  "gamma": 1.3,
  "x1": 0.63,
  "x2": 0.75,
  "x3": 1.05,
  "x4": 1.48
 }
}
