{
 "cc": {
  "lower": 6,
  "upper": 14
 },
 "ci": {
  "cc": {
   "lower": 6,
   "upper": 14
  },
  "s_max": 5,
  "temperature_range": {
   "max": { "value": 50000, "unit": "K" },
   "min": { "value": 100, "unit": "K" },
   "step": { "value": 100, "unit": "K" }
  }
 },
 "energy_range": {
  "max": { "value": 1e+5, "unit": "eV" },
  "min": { "value": 1e-4, "unit": "eV" },
  "points_per_decade": 20
 },
 "interaction": {
  "potential": {
   "epsilon": { "value": 0.1, "unit": "eV" },
   "sigma": { "value": 2.5e-10, "unit": "m" },
   "type": "LennardJones"
  },
  "reduced_mass": { "value": 2.0013, "unit": "amu" }
 },
 "l_max": 5,
 "r": {
  "Vmax": { "value": 20, "unit": "eV" },
  "Vmin": { "value": 1e-3, "unit": "eV" },
  "del": { "value": 1e-14, "unit": "m" },
  "max": { "value": 1e-9, "unit": "m" },
  "min": { "value": 2e-10, "unit": "m" }
 },
 "tolerance": 1e-3
}
