{
 "cc": {
  "lower": 6,
  "upper": 14
 },
 "ci": {
  "cc": {
   "lower": 6,
   "upper": 14
  },
  "s_max": 3,
  "temperature_range": {
   "max": { "value": 50000, "unit": "K" },
   "min": { "value": 100, "unit": "K" },
   "step": { "value": 100, "unit": "K" }
  }
 },
 "energy_range": {
  "max": { "value": 1e+1, "unit": "eV" },
  "min": { "value": 1e-2, "unit": "eV" },
  "points_per_decade": 20
 },
 "interaction": {
  "potential": {
	"type":	"LennardJonesLaricchiuta",
	"beta":	8.12,
	"epsilon": { "value": 11.603e-3, "unit": "eV" },
	"re":	{ "value": 3.794e-10, "unit": "m" },
	"is_neutral":	true
  },
  "_potential": {
   "re": { "value": 2e-10, "unit": "m" },
   "type": "HardSphere"
  },
  "reduced_mass": { "value": 20, "unit": "amu" }
 },
 "l_max": 3,
 "r": {
  "Vmax": { "value": 20, "unit": "eV" },
  "Vmin": { "value": 1e-3, "unit": "eV" },
  "del": { "value": 1e-14, "unit": "m" },
  "max": { "value": 1e-9, "unit": "m" },
  "min": { "value": 2e-10, "unit": "m" }
 },
 "tolerance": 1e-3
}
